History with Tags — history_tagged • saffer
…
library(dplyr)

#> 
#> Attaching package: ‘dplyr’
#> The following objects are masked from ‘package:stats’:
#> 
#>     filter, lag
#> The following objects are masked from ‘package:base’:
#> 
#>     intersect, setdiff, setequal, union

# Extract dates of holidays.
history_tagged %>% filter(holiday)

#> # A tibble: 40 x 8
#>       id date       event               covid lockdown alcohol holiday religious
#>    <int> <date>     <chr>               <lgl> <lgl>    <lgl>   <lgl>   <lgl>    
#>  1    17 2020-01-01 New Year's Day      FALSE FALSE    FALSE   TRUE    FALSE    
#>  2    18 2020-03-21 Human Rights Day    FALSE FALSE    FALSE   TRUE    FALSE    
#>  3    19 2020-04-10 Good Friday         FALSE FALSE    FALSE   TRUE    FALSE    
#>  4    20 2020-04-12 Easter Sunday       FALSE FALSE    FALSE   TRUE    TRUE     
#>  5    21 2020-04-13 Family Day          FALSE FALSE    FALSE   TRUE    FALSE    
#>  6    22 2020-04-27 Freedom Day         FALSE FALSE    FALSE   TRUE    FALSE    
#>  7    23 2020-05-01 Workers' Day        FALSE FALSE    FALSE   TRUE    FALSE    
#>  8    24 2020-06-16 Youth Day           FALSE FALSE    FALSE   TRUE    FALSE    
#>  9    25 2020-08-09 National Women's D… FALSE FALSE    FALSE   TRUE    FALSE    
#> 10    26 2020-09-24 Heritage Day        FALSE FALSE    FALSE   TRUE    FALSE    
#> # … with 30 more rows
…
